Aula3/simulation/qsim/Aula3.msim.vcd
$comment
	File created using the following command:
		vcd file Aula3.msim.vcd -direction
$end
$date
	Sat Aug 27 17:14:05 2022
$end
$version
	ModelSim Version 2020.1
$end
$timescale
	1ps
$end

$scope module aula3_vhd_vec_tst $end
$var wire 1 ! CLOCK_50 $end
$var wire 1 " KEY [3] $end
$var wire 1 # KEY [2] $end
$var wire 1 $ KEY [1] $end
$var wire 1 % KEY [0] $end
$var wire 1 & LEDR [9] $end
$var wire 1 ' LEDR [8] $end
$var wire 1 ( LEDR [7] $end
$var wire 1 ) LEDR [6] $end
$var wire 1 * LEDR [5] $end
$var wire 1 + LEDR [4] $end
$var wire 1 , LEDR [3] $end
$var wire 1 - LEDR [2] $end
$var wire 1 . LEDR [1] $end
$var wire 1 / LEDR [0] $end
$var wire 1 0 PC_OUT [2] $end
$var wire 1 1 PC_OUT [1] $end
$var wire 1 2 PC_OUT [0] $end
$var wire 1 3 SW [9] $end
$var wire 1 4 SW [8] $end
$var wire 1 5 SW [7] $end
$var wire 1 6 SW [6] $end
$var wire 1 7 SW [5] $end
$var wire 1 8 SW [4] $end
$var wire 1 9 SW [3] $end
$var wire 1 : SW [2] $end
$var wire 1 ; SW [1] $end
$var wire 1 < SW [0] $end

$scope module i1 $end
$var wire 1 = gnd $end
$var wire 1 > vcc $end
$var wire 1 ? unknown $end
$var wire 1 @ devoe $end
$var wire 1 A devclrn $end
$var wire 1 B devpor $end
$var wire 1 C ww_devoe $end
$var wire 1 D ww_devclrn $end
$var wire 1 E ww_devpor $end
$var wire 1 F ww_CLOCK_50 $end
$var wire 1 G ww_KEY [3] $end
$var wire 1 H ww_KEY [2] $end
$var wire 1 I ww_KEY [1] $end
$var wire 1 J ww_KEY [0] $end
$var wire 1 K ww_SW [9] $end
$var wire 1 L ww_SW [8] $end
$var wire 1 M ww_SW [7] $end
$var wire 1 N ww_SW [6] $end
$var wire 1 O ww_SW [5] $end
$var wire 1 P ww_SW [4] $end
$var wire 1 Q ww_SW [3] $end
$var wire 1 R ww_SW [2] $end
$var wire 1 S ww_SW [1] $end
$var wire 1 T ww_SW [0] $end
$var wire 1 U ww_PC_OUT [2] $end
$var wire 1 V ww_PC_OUT [1] $end
$var wire 1 W ww_PC_OUT [0] $end
$var wire 1 X ww_LEDR [9] $end
$var wire 1 Y ww_LEDR [8] $end
$var wire 1 Z ww_LEDR [7] $end
$var wire 1 [ ww_LEDR [6] $end
$var wire 1 \ ww_LEDR [5] $end
$var wire 1 ] ww_LEDR [4] $end
$var wire 1 ^ ww_LEDR [3] $end
$var wire 1 _ ww_LEDR [2] $end
$var wire 1 ` ww_LEDR [1] $end
$var wire 1 a ww_LEDR [0] $end
$var wire 1 b \CLOCK_50~input_o\ $end
$var wire 1 c \KEY[1]~input_o\ $end
$var wire 1 d \KEY[2]~input_o\ $end
$var wire 1 e \KEY[3]~input_o\ $end
$var wire 1 f \SW[4]~input_o\ $end
$var wire 1 g \SW[5]~input_o\ $end
$var wire 1 h \~QUARTUS_CREATED_GND~I_combout\ $end
$var wire 1 i \KEY[0]~input_o\ $end
$var wire 1 j \KEY[0]~inputCLKENA0_outclk\ $end
$var wire 1 k \PC|DOUT[0]~2_combout\ $end
$var wire 1 l \PC|DOUT[1]~0_combout\ $end
$var wire 1 m \PC|DOUT[1]~DUPLICATE_q\ $end
$var wire 1 n \PC|DOUT[2]~1_combout\ $end
$var wire 1 o \PC|DOUT[2]~DUPLICATE_q\ $end
$var wire 1 p \PC|DOUT[0]~DUPLICATE_q\ $end
$var wire 1 q \SW[6]~input_o\ $end
$var wire 1 r \ULA1|Add0~18_cout\ $end
$var wire 1 s \ULA1|Add0~1_sumout\ $end
$var wire 1 t \SW[0]~input_o\ $end
$var wire 1 u \decoderInstru1|saida[1]~1_combout\ $end
$var wire 1 v \MUX1|saida_MUX[3]~0_combout\ $end
$var wire 1 w \decoderInstru1|saida[2]~2_combout\ $end
$var wire 1 x \SW[7]~input_o\ $end
$var wire 1 y \ULA1|Add0~2\ $end
$var wire 1 z \ULA1|Add0~5_sumout\ $end
$var wire 1 { \SW[1]~input_o\ $end
$var wire 1 | \SW[8]~input_o\ $end
$var wire 1 } \ULA1|Add0~6\ $end
$var wire 1 ~ \ULA1|Add0~9_sumout\ $end
$var wire 1 !! \SW[2]~input_o\ $end
$var wire 1 "! \SW[9]~input_o\ $end
$var wire 1 #! \ULA1|Add0~10\ $end
$var wire 1 $! \ULA1|Add0~13_sumout\ $end
$var wire 1 %! \SW[3]~input_o\ $end
$var wire 1 &! \decoderInstru1|saida[0]~0_combout\ $end
$var wire 1 '! \REGA|DOUT\ [3] $end
$var wire 1 (! \REGA|DOUT\ [2] $end
$var wire 1 )! \REGA|DOUT\ [1] $end
$var wire 1 *! \REGA|DOUT\ [0] $end
$var wire 1 +! \PC|DOUT\ [2] $end
$var wire 1 ,! \PC|DOUT\ [1] $end
$var wire 1 -! \PC|DOUT\ [0] $end
$var wire 1 .! \REGA|ALT_INV_DOUT\ [3] $end
$var wire 1 /! \REGA|ALT_INV_DOUT\ [2] $end
$var wire 1 0! \REGA|ALT_INV_DOUT\ [1] $end
$var wire 1 1! \REGA|ALT_INV_DOUT\ [0] $end
$var wire 1 2! \PC|ALT_INV_DOUT\ [2] $end
$var wire 1 3! \PC|ALT_INV_DOUT\ [1] $end
$var wire 1 4! \PC|ALT_INV_DOUT\ [0] $end
$var wire 1 5! \decoderInstru1|ALT_INV_saida[1]~1_combout\ $end
$var wire 1 6! \PC|ALT_INV_DOUT[2]~DUPLICATE_q\ $end
$var wire 1 7! \PC|ALT_INV_DOUT[1]~DUPLICATE_q\ $end
$var wire 1 8! \PC|ALT_INV_DOUT[0]~DUPLICATE_q\ $end
$var wire 1 9! \ALT_INV_SW[9]~input_o\ $end
$var wire 1 :! \ALT_INV_SW[8]~input_o\ $end
$var wire 1 ;! \ALT_INV_SW[7]~input_o\ $end
$var wire 1 <! \ALT_INV_SW[6]~input_o\ $end
$upscope $end
$upscope $end
$enddefinitions $end
#0
$dumpvars
x!
0=
1>
x?
1@
1A
1B
1C
1D
1E
xF
xb
xc
xd
xe
xf
xg
xh
1i
1j
1k
0l
0m
0n
0o
0p
0q
1r
0s
0t
1u
1v
0w
0x
1y
0z
0{
0|
1}
0~
0!!
0"!
1#!
0$!
0%!
0&!
05!
16!
17!
18!
19!
1:!
1;!
1<!
x"
x#
x$
1%
03
04
05
06
x7
x8
09
0:
0;
0<
00
01
02
0&
0'
1(
0)
0*
0+
0,
0-
0.
0/
xG
xH
xI
1J
0K
0L
0M
0N
xO
xP
0Q
0R
0S
0T
0U
0V
0W
0X
0Y
1Z
0[
0\
0]
0^
0_
0`
0a
0'!
0(!
0)!
0*!
0+!
0,!
0-!
1.!
1/!
10!
11!
12!
13!
14!
$end
#20000
0%
0J
0i
0j
#40000
1%
15
16
1J
1N
1M
1x
1q
1i
1j
0<!
0;!
1z
0}
1s
0y
1-!
1p
08!
04!
0z
1~
0#!
0k
1l
0v
1w
1&!
0r
0s
1y
0u
1z
0~
1$!
0$!
15!
1W
0z
1}
1s
0y
12
1z
0}
1~
0Z
1[
1Y
1X
0~
1)
0(
1'
1&
#60000
0%
0J
0i
0j
#80000
1%
1J
1i
1j
0-!
1,!
1m
0p
1*!
1)!
00!
01!
18!
07!
03!
14!
1k
0s
1y
0z
1}
1`
1a
1V
0W
1~
1z
1/
1.
02
11
#100000
0%
0J
0i
0j
#120000
1%
1J
1i
1j
1-!
1p
0*!
1(!
0/!
11!
08!
04!
0k
0l
1n
1s
0y
0~
1#!
1_
0a
1W
1$!
0z
0/
1-
12
#140000
0%
0J
0i
0j
#160000
1%
05
06
14
1J
0N
0M
1L
1|
0x
0q
1i
1j
1<!
1;!
0:!
1~
1z
0}
0s
0-!
0,!
0m
1+!
1o
0p
1*!
0)!
0(!
1'!
0.!
1/!
10!
01!
18!
06!
02!
17!
13!
14!
0~
1k
0&!
1r
1y
0#!
1^
0_
0`
1a
1U
0V
0W
0$!
0z
1}
1s
1/
0.
0-
1,
02
01
10
1~
0[
0)
#180000
0%
0J
0i
0j
#200000
1%
04
1J
0L
0|
1i
1j
1:!
0~
1#!
1-!
1p
1(!
0'!
1.!
0/!
08!
04!
1$!
0k
1l
1v
0w
1~
0$!
0^
1_
1W
1-
0,
12
0Y
0X
0'
0&
#220000
0%
0J
0i
0j
#240000
1%
1J
1i
1j
0-!
1,!
1m
0p
18!
07!
03!
14!
1k
1V
0W
02
11
#260000
0%
0J
0i
0j
#280000
1%
1J
1i
1j
1-!
1p
08!
04!
0k
0l
0n
1W
12
#300000
0%
0J
0i
0j
