DesComp_Delta/Aula3Delta/simulation/qsim/DeltaAtv1Aula3.msim.vcd
$comment
	File created using the following command:
		vcd file DeltaAtv1Aula3.msim.vcd -direction
$end
$date
	Thu Aug 11 15:54:21 2022
$end
$version
	ModelSim Version 2020.1
$end
$timescale
	1ps
$end

$scope module deltaatv1aula3_vhd_vec_tst $end
$var wire 1 ! CLOCK_50 $end
$var wire 1 " HEX0 [6] $end
$var wire 1 # HEX0 [5] $end
$var wire 1 $ HEX0 [4] $end
$var wire 1 % HEX0 [3] $end
$var wire 1 & HEX0 [2] $end
$var wire 1 ' HEX0 [1] $end
$var wire 1 ( HEX0 [0] $end
$var wire 1 ) HEX1 [6] $end
$var wire 1 * HEX1 [5] $end
$var wire 1 + HEX1 [4] $end
$var wire 1 , HEX1 [3] $end
$var wire 1 - HEX1 [2] $end
$var wire 1 . HEX1 [1] $end
$var wire 1 / HEX1 [0] $end
$var wire 1 0 HEX2 [6] $end
$var wire 1 1 HEX2 [5] $end
$var wire 1 2 HEX2 [4] $end
$var wire 1 3 HEX2 [3] $end
$var wire 1 4 HEX2 [2] $end
$var wire 1 5 HEX2 [1] $end
$var wire 1 6 HEX2 [0] $end
$var wire 1 7 HEX3 [6] $end
$var wire 1 8 HEX3 [5] $end
$var wire 1 9 HEX3 [4] $end
$var wire 1 : HEX3 [3] $end
$var wire 1 ; HEX3 [2] $end
$var wire 1 < HEX3 [1] $end
$var wire 1 = HEX3 [0] $end
$var wire 1 > KEY [3] $end
$var wire 1 ? KEY [2] $end
$var wire 1 @ KEY [1] $end
$var wire 1 A KEY [0] $end
$var wire 1 B LEDR [9] $end
$var wire 1 C LEDR [8] $end
$var wire 1 D LEDR [7] $end
$var wire 1 E LEDR [6] $end
$var wire 1 F LEDR [5] $end
$var wire 1 G LEDR [4] $end
$var wire 1 H LEDR [3] $end
$var wire 1 I LEDR [2] $end
$var wire 1 J LEDR [1] $end
$var wire 1 K LEDR [0] $end
$var wire 1 L SW [9] $end
$var wire 1 M SW [8] $end
$var wire 1 N SW [7] $end
$var wire 1 O SW [6] $end
$var wire 1 P SW [5] $end
$var wire 1 Q SW [4] $end
$var wire 1 R SW [3] $end
$var wire 1 S SW [2] $end
$var wire 1 T SW [1] $end
$var wire 1 U SW [0] $end

$scope module i1 $end
$var wire 1 V gnd $end
$var wire 1 W vcc $end
$var wire 1 X unknown $end
$var wire 1 Y devoe $end
$var wire 1 Z devclrn $end
$var wire 1 [ devpor $end
$var wire 1 \ ww_devoe $end
$var wire 1 ] ww_devclrn $end
$var wire 1 ^ ww_devpor $end
$var wire 1 _ ww_CLOCK_50 $end
$var wire 1 ` ww_SW [9] $end
$var wire 1 a ww_SW [8] $end
$var wire 1 b ww_SW [7] $end
$var wire 1 c ww_SW [6] $end
$var wire 1 d ww_SW [5] $end
$var wire 1 e ww_SW [4] $end
$var wire 1 f ww_SW [3] $end
$var wire 1 g ww_SW [2] $end
$var wire 1 h ww_SW [1] $end
$var wire 1 i ww_SW [0] $end
$var wire 1 j ww_KEY [3] $end
$var wire 1 k ww_KEY [2] $end
$var wire 1 l ww_KEY [1] $end
$var wire 1 m ww_KEY [0] $end
$var wire 1 n ww_HEX0 [6] $end
$var wire 1 o ww_HEX0 [5] $end
$var wire 1 p ww_HEX0 [4] $end
$var wire 1 q ww_HEX0 [3] $end
$var wire 1 r ww_HEX0 [2] $end
$var wire 1 s ww_HEX0 [1] $end
$var wire 1 t ww_HEX0 [0] $end
$var wire 1 u ww_HEX1 [6] $end
$var wire 1 v ww_HEX1 [5] $end
$var wire 1 w ww_HEX1 [4] $end
$var wire 1 x ww_HEX1 [3] $end
$var wire 1 y ww_HEX1 [2] $end
$var wire 1 z ww_HEX1 [1] $end
$var wire 1 { ww_HEX1 [0] $end
$var wire 1 | ww_HEX2 [6] $end
$var wire 1 } ww_HEX2 [5] $end
$var wire 1 ~ ww_HEX2 [4] $end
$var wire 1 !! ww_HEX2 [3] $end
$var wire 1 "! ww_HEX2 [2] $end
$var wire 1 #! ww_HEX2 [1] $end
$var wire 1 $! ww_HEX2 [0] $end
$var wire 1 %! ww_HEX3 [6] $end
$var wire 1 &! ww_HEX3 [5] $end
$var wire 1 '! ww_HEX3 [4] $end
$var wire 1 (! ww_HEX3 [3] $end
$var wire 1 )! ww_HEX3 [2] $end
$var wire 1 *! ww_HEX3 [1] $end
$var wire 1 +! ww_HEX3 [0] $end
$var wire 1 ,! ww_LEDR [9] $end
$var wire 1 -! ww_LEDR [8] $end
$var wire 1 .! ww_LEDR [7] $end
$var wire 1 /! ww_LEDR [6] $end
$var wire 1 0! ww_LEDR [5] $end
$var wire 1 1! ww_LEDR [4] $end
$var wire 1 2! ww_LEDR [3] $end
$var wire 1 3! ww_LEDR [2] $end
$var wire 1 4! ww_LEDR [1] $end
$var wire 1 5! ww_LEDR [0] $end
$var wire 1 6! \CLOCK_50~input_o\ $end
$var wire 1 7! \KEY[1]~input_o\ $end
$var wire 1 8! \KEY[2]~input_o\ $end
$var wire 1 9! \KEY[3]~input_o\ $end
$var wire 1 :! \~QUARTUS_CREATED_GND~I_combout\ $end
$var wire 1 ;! \SW[0]~input_o\ $end
$var wire 1 <! \SW[1]~input_o\ $end
$var wire 1 =! \KEY[0]~input_o\ $end
$var wire 1 >! \KEY[0]~inputCLKENA0_outclk\ $end
$var wire 1 ?! \Contador|DOUT[0]~2_combout\ $end
$var wire 1 @! \Contador|DOUT[0]~DUPLICATE_q\ $end
$var wire 1 A! \Somador|Add0~0_combout\ $end
$var wire 1 B! \Contador|DOUT[2]~1_combout\ $end
$var wire 1 C! \Contador|DOUT[1]~DUPLICATE_q\ $end
$var wire 1 D! \Contador|DOUT[3]~0_combout\ $end
$var wire 1 E! \DHEX0|rascSaida7seg[0]~0_combout\ $end
$var wire 1 F! \DHEX0|saida7seg~0_combout\ $end
$var wire 1 G! \Contador|DOUT[2]~DUPLICATE_q\ $end
$var wire 1 H! \DHEX0|saida7seg~1_combout\ $end
$var wire 1 I! \DHEX0|saida7seg~2_combout\ $end
$var wire 1 J! \DHEX0|rascSaida7seg[3]~1_combout\ $end
$var wire 1 K! \DHEX0|saida7seg~3_combout\ $end
$var wire 1 L! \DHEX0|rascSaida7seg[4]~2_combout\ $end
$var wire 1 M! \DHEX0|saida7seg~4_combout\ $end
$var wire 1 N! \DHEX0|rascSaida7seg[5]~3_combout\ $end
$var wire 1 O! \DHEX0|saida7seg~5_combout\ $end
$var wire 1 P! \DHEX0|saida7seg~6_combout\ $end
$var wire 1 Q! \DHEX1|saida7seg~0_combout\ $end
$var wire 1 R! \DHEX1|saida7seg~1_combout\ $end
$var wire 1 S! \DHEX1|saida7seg~2_combout\ $end
$var wire 1 T! \DHEX1|saida7seg~3_combout\ $end
$var wire 1 U! \DHEX1|saida7seg~4_combout\ $end
$var wire 1 V! \DHEX1|saida7seg~5_combout\ $end
$var wire 1 W! \DHEX1|saida7seg~6_combout\ $end
$var wire 1 X! \DHEX2|saida7seg~0_combout\ $end
$var wire 1 Y! \DHEX2|saida7seg~1_combout\ $end
$var wire 1 Z! \DHEX2|saida7seg~2_combout\ $end
$var wire 1 [! \DHEX2|saida7seg~3_combout\ $end
$var wire 1 \! \DHEX2|saida7seg~4_combout\ $end
$var wire 1 ]! \DHEX2|saida7seg~5_combout\ $end
$var wire 1 ^! \DHEX2|saida7seg~6_combout\ $end
$var wire 1 _! \DHEX3|saida7seg~0_combout\ $end
$var wire 1 `! \DHEX3|saida7seg~1_combout\ $end
$var wire 1 a! \DHEX3|saida7seg~2_combout\ $end
$var wire 1 b! \DHEX3|saida7seg~3_combout\ $end
$var wire 1 c! \DHEX3|saida7seg~4_combout\ $end
$var wire 1 d! \DHEX3|saida7seg~5_combout\ $end
$var wire 1 e! \DHEX3|saida7seg~6_combout\ $end
$var wire 1 f! \SW[2]~input_o\ $end
$var wire 1 g! \SW[3]~input_o\ $end
$var wire 1 h! \SW[4]~input_o\ $end
$var wire 1 i! \SW[5]~input_o\ $end
$var wire 1 j! \SW[6]~input_o\ $end
$var wire 1 k! \SW[7]~input_o\ $end
$var wire 1 l! \SW[8]~input_o\ $end
$var wire 1 m! \SW[9]~input_o\ $end
$var wire 1 n! \Contador|DOUT\ [3] $end
$var wire 1 o! \Contador|DOUT\ [2] $end
$var wire 1 p! \Contador|DOUT\ [1] $end
$var wire 1 q! \Contador|DOUT\ [0] $end
$var wire 1 r! \Contador|ALT_INV_DOUT[1]~DUPLICATE_q\ $end
$var wire 1 s! \Contador|ALT_INV_DOUT[2]~DUPLICATE_q\ $end
$var wire 1 t! \Contador|ALT_INV_DOUT[0]~DUPLICATE_q\ $end
$var wire 1 u! \ALT_INV_SW[1]~input_o\ $end
$var wire 1 v! \ALT_INV_SW[0]~input_o\ $end
$var wire 1 w! \DHEX0|ALT_INV_rascSaida7seg[5]~3_combout\ $end
$var wire 1 x! \DHEX0|ALT_INV_rascSaida7seg[4]~2_combout\ $end
$var wire 1 y! \DHEX0|ALT_INV_rascSaida7seg[3]~1_combout\ $end
$var wire 1 z! \DHEX0|ALT_INV_rascSaida7seg[0]~0_combout\ $end
$var wire 1 {! \Contador|ALT_INV_DOUT\ [3] $end
$var wire 1 |! \Contador|ALT_INV_DOUT\ [2] $end
$var wire 1 }! \Contador|ALT_INV_DOUT\ [1] $end
$var wire 1 ~! \Contador|ALT_INV_DOUT\ [0] $end
$upscope $end
$upscope $end
$enddefinitions $end
#0
$dumpvars
x!
0V
1W
xX
1Y
1Z
1[
1\
1]
1^
x_
x6!
x7!
x8!
x9!
x:!
0;!
0<!
0=!
0>!
1?!
0@!
0A!
0B!
0C!
0D!
0E!
0F!
0G!
0H!
0I!
0J!
0K!
0L!
0M!
0N!
0O!
1P!
1Q!
1R!
1S!
1T!
1U!
1V!
1W!
1X!
1Y!
1Z!
1[!
1\!
1]!
1^!
1_!
1`!
1a!
1b!
1c!
1d!
1e!
xf!
xg!
xh!
xi!
xj!
xk!
xl!
xm!
1r!
1s!
1t!
1u!
1v!
1w!
1x!
1y!
1z!
x>
x?
x@
0A
xL
xM
xN
xO
xP
xQ
xR
xS
0T
0U
x`
xa
xb
xc
xd
xe
xf
xg
0h
0i
xj
xk
xl
0m
1n
0o
0p
0q
0r
0s
0t
1u
1v
1w
1x
1y
1z
1{
1|
1}
1~
1!!
1"!
1#!
1$!
1%!
1&!
1'!
1(!
1)!
1*!
1+!
x,!
x-!
x.!
x/!
x0!
x1!
x2!
x3!
04!
05!
0n!
0o!
0p!
0q!
1{!
1|!
1}!
1~!
1"
0#
0$
0%
0&
0'
0(
1)
1*
1+
1,
1-
1.
1/
10
11
12
13
14
15
16
17
18
19
1:
1;
1<
1=
xB
xC
xD
xE
xF
xG
xH
xI
0J
0K
$end
#10000
1A
1m
1=!
1>!
1q!
1@!
0t!
0~!
0?!
1J!
1L!
1N!
1A!
1E!
0z!
0w!
0x!
0y!
1K!
1M!
1O!
1F!
1t
1o
1p
1q
1(
1%
1$
1#
#20000
0A
0m
0=!
0>!
#30000
1A
1m
1=!
1>!
0q!
0@!
1p!
1C!
0r!
0}!
1t!
1~!
1?!
0E!
1I!
0J!
0L!
0P!
1x!
1y!
1z!
0F!
0K!
0M!
0n
1r
1&
0"
0p
0q
0t
0(
0%
0$
#40000
0A
0m
0=!
0>!
#50000
1A
1m
1=!
1>!
1q!
1@!
0t!
0~!
0?!
1L!
0A!
1B!
0I!
0x!
1M!
0r
0&
1p
1$
#60000
0A
0m
0=!
0>!
#70000
1A
1m
1=!
1>!
0q!
0@!
0p!
1o!
0C!
1G!
0s!
1r!
0|!
1}!
1t!
1~!
1?!
1E!
1J!
0N!
1w!
0y!
0z!
1F!
1K!
0O!
0o
1q
1t
1(
1%
0#
#80000
0A
1U
0m
1i
1;!
0=!
0>!
0v!
1H!
1I!
1O!
1P!
0R!
0S!
0V!
0W!
15!
1K
0u
0v
0y
0z
1n
1o
1r
1s
0.
0-
0*
0)
1'
1&
1#
1"
#90000
1A
1m
1=!
1>!
1q!
1@!
0t!
0~!
0?!
0J!
1A!
0E!
1R!
1z!
1y!
0T!
0Q!
1z
1.
0{
0x
0/
0,
#100000
0A
0m
0=!
0>!
#110000
1A
1m
1=!
1>!
0q!
0@!
1p!
1C!
0r!
0}!
1t!
1~!
1?!
0L!
1x!
0U!
0w
0+
#120000
0A
0m
0=!
0>!
#130000
1A
1m
1=!
1>!
1q!
1@!
0t!
0~!
0?!
1J!
1L!
1N!
0A!
0B!
1D!
0R!
1W!
0w!
0x!
0y!
1T!
1U!
1V!
1u
0z
0.
1)
1v
1w
1x
1,
1+
1*
#140000
0A
0m
0=!
0>!
#150000
1A
1m
1=!
1>!
0q!
0@!
0p!
0o!
0C!
1n!
0G!
1s!
0{!
1r!
1|!
1}!
1t!
1~!
1?!
0J!
0L!
0N!
0W!
1w!
1x!
1y!
0T!
0U!
0V!
0u
0)
0v
0w
0x
0,
0+
0*
#160000
0A
0U
1T
0m
0i
1h
1<!
0;!
0=!
0>!
1v!
0u!
1Q!
1R!
1S!
1T!
1U!
1V!
1W!
0X!
0Y!
0Z!
0[!
0\!
0]!
0^!
05!
14!
0K
1J
0|
0}
0~
0!!
0"!
0#!
0$!
1u
1v
1w
1x
1y
1z
1{
06
05
04
03
02
01
00
1/
1.
1-
1,
1+
1*
1)
#170000
1A
1m
1=!
1>!
1q!
1@!
0t!
0~!
0?!
1L!
1A!
0x!
1\!
1~
12
#180000
0A
0m
0=!
0>!
#190000
1A
1m
1=!
1>!
0q!
0@!
1p!
1C!
0r!
0}!
1t!
1~!
1?!
1J!
0L!
1x!
0y!
1[!
0\!
0~
1!!
13
02
#200000
0A
0m
0=!
0>!
#210000
1A
1m
1=!
1>!
1q!
1@!
0t!
0~!
0?!
0J!
0A!
1B!
1E!
1Y!
0z!
1y!
0[!
1X!
1#!
15
1$!
0!!
16
03
#220000
0A
0m
0=!
0>!
#230000
1A
1m
1=!
1>!
0q!
0@!
0p!
1o!
0C!
1G!
0s!
1r!
0|!
1}!
1t!
1~!
1?!
0E!
1Z!
1^!
1z!
0X!
1|
1"!
14
10
0$!
06
#240000
0A
1U
0m
1i
1;!
0=!
0>!
0v!
1X!
1[!
1\!
1]!
0_!
0b!
0c!
0d!
15!
1K
0&!
0'!
0(!
0+!
1}
1~
1!!
1$!
0=
0:
09
08
16
13
12
11
#250000
1A
1m
1=!
1>!
1q!
1@!
0t!
0~!
0?!
1N!
0`!
0a!
0e!
1A!
1E!
0z!
0w!
1d!
1_!
0%!
0)!
0*!
0<
0;
07
1+!
1&!
1=
18
#260000
0A
0m
0=!
0>!
#270000
1A
1m
1=!
1>!
0q!
0@!
1p!
1C!
0r!
0}!
1t!
1~!
1?!
0E!
0N!
1`!
1a!
1w!
1z!
0_!
0d!
1)!
1*!
1<
1;
0&!
0+!
0=
08
#280000
0A
0m
0=!
0>!
#290000
1A
1m
1=!
1>!
1q!
1@!
0t!
0~!
0?!
1J!
0A!
0B!
0D!
0y!
1b!
1(!
1:
#300000
0A
0m
0=!
0>!
#310000
1A
1m
1=!
1>!
0q!
0@!
0p!
0o!
0C!
0n!
0G!
1s!
1{!
1r!
1|!
1}!
1t!
1~!
1?!
0J!
0`!
0a!
1e!
1y!
0b!
1%!
0)!
0*!
0<
0;
17
0(!
0:
#320000
0A
0U
0T
0m
0i
0h
0<!
0;!
0=!
0>!
1v!
1u!
0F!
0H!
0I!
0K!
0M!
0O!
1_!
1`!
1a!
1b!
1c!
1d!
05!
04!
0K
0J
1&!
1'!
1(!
1)!
1*!
1+!
0o
0p
0q
0r
0s
0t
1=
1<
1;
1:
19
18
0(
0'
0&
0%
0$
0#
#330000
1A
1m
1=!
1>!
1q!
1@!
0t!
0~!
0?!
1J!
1L!
1N!
1A!
1E!
0z!
0w!
0x!
0y!
1K!
1M!
1O!
1F!
1t
1o
1p
1q
1(
1%
1$
1#
#340000
0A
0m
0=!
0>!
#350000
1A
1m
1=!
1>!
0q!
0@!
1p!
1C!
0r!
0}!
1t!
1~!
1?!
0E!
1I!
0J!
0L!
0P!
1x!
1y!
1z!
0F!
0K!
0M!
0n
1r
1&
0"
0p
0q
0t
0(
0%
0$
#360000
0A
0m
0=!
0>!
#370000
1A
1m
1=!
1>!
1q!
1@!
0t!
0~!
0?!
1L!
0A!
1B!
0I!
0x!
1M!
0r
0&
1p
1$
#380000
0A
0m
0=!
0>!
#390000
1A
1m
1=!
1>!
0q!
0@!
0p!
1o!
0C!
1G!
0s!
1r!
0|!
1}!
1t!
1~!
1?!
1E!
1J!
0N!
1w!
0y!
0z!
1F!
1K!
0O!
0o
1q
1t
1(
1%
0#
#400000
0A
1U
0m
1i
1;!
0=!
0>!
0v!
1H!
1I!
1O!
1P!
0R!
0S!
0V!
0W!
15!
1K
0u
0v
0y
0z
1n
1o
1r
1s
0.
0-
0*
0)
1'
1&
1#
1"
#410000
1A
1m
1=!
1>!
1q!
1@!
0t!
0~!
0?!
0J!
1A!
0E!
1R!
1z!
1y!
0T!
0Q!
1z
1.
0{
0x
0/
0,
#420000
0A
0m
0=!
0>!
#430000
1A
1m
1=!
1>!
0q!
0@!
1p!
1C!
0r!
0}!
1t!
1~!
1?!
0L!
1x!
0U!
0w
0+
#440000
0A
0m
0=!
0>!
#450000
1A
1m
1=!
1>!
1q!
1@!
0t!
0~!
0?!
1J!
1L!
1N!
0A!
0B!
1D!
0R!
1W!
0w!
0x!
0y!
1T!
1U!
1V!
1u
0z
0.
1)
1v
1w
1x
1,
1+
1*
#460000
0A
0m
0=!
0>!
#470000
1A
1m
1=!
1>!
0q!
0@!
0p!
0o!
0C!
1n!
0G!
1s!
0{!
1r!
1|!
1}!
1t!
1~!
1?!
0J!
0L!
0N!
0W!
1w!
1x!
1y!
0T!
0U!
0V!
0u
0)
0v
0w
0x
0,
0+
0*
#480000
0A
0U
1T
0m
0i
1h
1<!
0;!
0=!
0>!
1v!
0u!
1Q!
1R!
1S!
1T!
1U!
1V!
1W!
0X!
0Y!
0Z!
0[!
0\!
0]!
0^!
05!
14!
0K
1J
0|
0}
0~
0!!
0"!
0#!
0$!
1u
1v
1w
1x
1y
1z
1{
06
05
04
03
02
01
00
1/
1.
1-
1,
1+
1*
1)
#490000
1A
1m
1=!
1>!
1q!
1@!
0t!
0~!
0?!
1L!
1A!
0x!
1\!
1~
12
#500000
0A
0m
0=!
0>!
#510000
1A
1m
1=!
1>!
0q!
0@!
1p!
1C!
0r!
0}!
1t!
1~!
1?!
1J!
0L!
1x!
0y!
1[!
0\!
0~
1!!
13
02
#520000
0A
0m
0=!
0>!
#530000
1A
1m
1=!
1>!
1q!
1@!
0t!
0~!
0?!
0J!
0A!
1B!
1E!
1Y!
0z!
1y!
0[!
1X!
1#!
15
1$!
0!!
16
03
#540000
0A
0m
0=!
0>!
#550000
1A
1m
1=!
1>!
0q!
0@!
0p!
1o!
0C!
1G!
0s!
1r!
0|!
1}!
1t!
1~!
1?!
0E!
1Z!
1^!
1z!
0X!
1|
1"!
14
10
0$!
06
#560000
0A
1U
0m
1i
1;!
0=!
0>!
0v!
1X!
1[!
1\!
1]!
0_!
0b!
0c!
0d!
15!
1K
0&!
0'!
0(!
0+!
1}
1~
1!!
1$!
0=
0:
09
08
16
13
12
11
#570000
1A
1m
1=!
1>!
1q!
1@!
0t!
0~!
0?!
1N!
0`!
0a!
0e!
1A!
1E!
0z!
0w!
1d!
1_!
0%!
0)!
0*!
0<
0;
07
1+!
1&!
1=
18
#580000
0A
0m
0=!
0>!
#590000
1A
1m
1=!
1>!
0q!
0@!
1p!
1C!
0r!
0}!
1t!
1~!
1?!
0E!
0N!
1`!
1a!
1w!
1z!
0_!
0d!
1)!
1*!
1<
1;
0&!
0+!
0=
08
#600000
0A
0m
0=!
0>!
#610000
1A
1m
1=!
1>!
1q!
1@!
0t!
0~!
0?!
1J!
0A!
0B!
0D!
0y!
1b!
1(!
1:
#620000
0A
0m
0=!
0>!
#630000
1A
1m
1=!
1>!
0q!
0@!
0p!
0o!
0C!
0n!
0G!
1s!
1{!
1r!
1|!
1}!
1t!
1~!
1?!
0J!
0`!
0a!
1e!
1y!
0b!
1%!
0)!
0*!
0<
0;
17
0(!
0:
#640000
0A
0U
0T
0m
0i
0h
0<!
0;!
0=!
0>!
1v!
1u!
0F!
0H!
0I!
0K!
0M!
0O!
1_!
1`!
1a!
1b!
1c!
1d!
05!
04!
0K
0J
1&!
1'!
1(!
1)!
1*!
1+!
0o
0p
0q
0r
0s
0t
1=
1<
1;
1:
19
18
0(
0'
0&
0%
0$
0#
#650000
1A
1m
1=!
1>!
1q!
1@!
0t!
0~!
0?!
1J!
1L!
1N!
1A!
1E!
0z!
0w!
0x!
0y!
1K!
1M!
1O!
1F!
1t
1o
1p
1q
1(
1%
1$
1#
#660000
0A
0m
0=!
0>!
#670000
1A
1m
1=!
1>!
0q!
0@!
1p!
1C!
0r!
0}!
1t!
1~!
1?!
0E!
1I!
0J!
0L!
0P!
1x!
1y!
1z!
0F!
0K!
0M!
0n
1r
1&
0"
0p
0q
0t
0(
0%
0$
#680000
0A
0m
0=!
0>!
#690000
1A
1m
1=!
1>!
1q!
1@!
0t!
0~!
0?!
1L!
0A!
1B!
0I!
0x!
1M!
0r
0&
1p
1$
#700000
0A
0m
0=!
0>!
#710000
1A
1m
1=!
1>!
0q!
0@!
0p!
1o!
0C!
1G!
0s!
1r!
0|!
1}!
1t!
1~!
1?!
1E!
1J!
0N!
1w!
0y!
0z!
1F!
1K!
0O!
0o
1q
1t
1(
1%
0#
#720000
0A
1U
0m
1i
1;!
0=!
0>!
0v!
1H!
1I!
1O!
1P!
0R!
0S!
0V!
0W!
15!
1K
0u
0v
0y
0z
1n
1o
1r
1s
0.
0-
0*
0)
1'
1&
1#
1"
#730000
1A
1m
1=!
1>!
1q!
1@!
0t!
0~!
0?!
0J!
1A!
0E!
1R!
1z!
1y!
0T!
0Q!
1z
1.
0{
0x
0/
0,
#740000
0A
0m
0=!
0>!
#750000
1A
1m
1=!
1>!
0q!
0@!
1p!
1C!
0r!
0}!
1t!
1~!
1?!
0L!
1x!
0U!
0w
0+
#760000
0A
0m
0=!
0>!
#770000
1A
1m
1=!
1>!
1q!
1@!
0t!
0~!
0?!
1J!
1L!
1N!
0A!
0B!
1D!
0R!
1W!
0w!
0x!
0y!
1T!
1U!
1V!
1u
0z
0.
1)
1v
1w
1x
1,
1+
1*
#780000
0A
0m
0=!
0>!
#790000
1A
1m
1=!
1>!
0q!
0@!
0p!
0o!
0C!
1n!
0G!
1s!
0{!
1r!
1|!
1}!
1t!
1~!
1?!
0J!
0L!
0N!
0W!
1w!
1x!
1y!
0T!
0U!
0V!
0u
0)
0v
0w
0x
0,
0+
0*
#800000
0A
0U
1T
0m
0i
1h
1<!
0;!
0=!
0>!
1v!
0u!
1Q!
1R!
1S!
1T!
1U!
1V!
1W!
0X!
0Y!
0Z!
0[!
0\!
0]!
0^!
05!
14!
0K
1J
0|
0}
0~
0!!
0"!
0#!
0$!
1u
1v
1w
1x
1y
1z
1{
06
05
04
03
02
01
00
1/
1.
1-
1,
1+
1*
1)
#810000
1A
1m
1=!
1>!
1q!
1@!
0t!
0~!
0?!
1L!
1A!
0x!
1\!
1~
12
#820000
0A
0m
0=!
0>!
#830000
1A
1m
1=!
1>!
0q!
0@!
1p!
1C!
0r!
0}!
1t!
1~!
1?!
1J!
0L!
1x!
0y!
1[!
0\!
0~
1!!
13
02
#840000
0A
0m
0=!
0>!
#850000
1A
1m
1=!
1>!
1q!
1@!
0t!
0~!
0?!
0J!
0A!
1B!
1E!
1Y!
0z!
1y!
0[!
1X!
1#!
15
1$!
0!!
16
03
#860000
0A
0m
0=!
0>!
#870000
1A
1m
1=!
1>!
0q!
0@!
0p!
1o!
0C!
1G!
0s!
1r!
0|!
1}!
1t!
1~!
1?!
0E!
1Z!
1^!
1z!
0X!
1|
1"!
14
10
0$!
06
#880000
0A
1U
0m
1i
1;!
0=!
0>!
0v!
1X!
1[!
1\!
1]!
0_!
0b!
0c!
0d!
15!
1K
0&!
0'!
0(!
0+!
1}
1~
1!!
1$!
0=
0:
09
08
16
13
12
11
#890000
1A
1m
1=!
1>!
1q!
1@!
0t!
0~!
0?!
1N!
0`!
0a!
0e!
1A!
1E!
0z!
0w!
1d!
1_!
0%!
0)!
0*!
0<
0;
07
1+!
1&!
1=
18
#900000
0A
0m
0=!
0>!
#910000
1A
1m
1=!
1>!
0q!
0@!
1p!
1C!
0r!
0}!
1t!
1~!
1?!
0E!
0N!
1`!
1a!
1w!
1z!
0_!
0d!
1)!
1*!
1<
1;
0&!
0+!
0=
08
#920000
0A
0m
0=!
0>!
#930000
1A
1m
1=!
1>!
1q!
1@!
0t!
0~!
0?!
1J!
0A!
0B!
0D!
0y!
1b!
1(!
1:
#940000
0A
0m
0=!
0>!
#950000
1A
1m
1=!
1>!
0q!
0@!
0p!
0o!
0C!
0n!
0G!
1s!
1{!
1r!
1|!
1}!
1t!
1~!
1?!
0J!
0`!
0a!
1e!
1y!
0b!
1%!
0)!
0*!
0<
0;
17
0(!
0:
#960000
0A
0U
0T
0m
0i
0h
0<!
0;!
0=!
0>!
1v!
1u!
0F!
0H!
0I!
0K!
0M!
0O!
1_!
1`!
1a!
1b!
1c!
1d!
05!
04!
0K
0J
1&!
1'!
1(!
1)!
1*!
1+!
0o
0p
0q
0r
0s
0t
1=
1<
1;
1:
19
18
0(
0'
0&
0%
0$
0#
#970000
1A
1m
1=!
1>!
1q!
1@!
0t!
0~!
0?!
1J!
1L!
1N!
1A!
1E!
0z!
0w!
0x!
0y!
1K!
1M!
1O!
1F!
1t
1o
1p
1q
1(
1%
1$
1#
#980000
0A
0m
0=!
0>!
#990000
1A
1m
1=!
1>!
0q!
0@!
1p!
1C!
0r!
0}!
1t!
1~!
1?!
0E!
1I!
0J!
0L!
0P!
1x!
1y!
1z!
0F!
0K!
0M!
0n
1r
1&
0"
0p
0q
0t
0(
0%
0$
