Aula4_RAM/simulation/qsim/Aula4.msim.vcd
$comment
	File created using the following command:
		vcd file Aula4.msim.vcd -direction
$end
$date
	Fri Sep 02 14:23:19 2022
$end
$version
	ModelSim Version 2020.1
$end
$timescale
	1ps
$end

$scope module aula4_vhd_vec_tst $end
$var wire 1 ! CLOCK_50 $end
$var wire 1 " KEY [3] $end
$var wire 1 # KEY [2] $end
$var wire 1 $ KEY [1] $end
$var wire 1 % KEY [0] $end
$var wire 1 & LEDR [9] $end
$var wire 1 ' LEDR [8] $end
$var wire 1 ( LEDR [7] $end
$var wire 1 ) LEDR [6] $end
$var wire 1 * LEDR [5] $end
$var wire 1 + LEDR [4] $end
$var wire 1 , LEDR [3] $end
$var wire 1 - LEDR [2] $end
$var wire 1 . LEDR [1] $end
$var wire 1 / LEDR [0] $end
$var wire 1 0 PC_OUT [7] $end
$var wire 1 1 PC_OUT [6] $end
$var wire 1 2 PC_OUT [5] $end
$var wire 1 3 PC_OUT [4] $end
$var wire 1 4 PC_OUT [3] $end
$var wire 1 5 PC_OUT [2] $end
$var wire 1 6 PC_OUT [1] $end
$var wire 1 7 PC_OUT [0] $end
$var wire 1 8 REG_OUT [7] $end
$var wire 1 9 REG_OUT [6] $end
$var wire 1 : REG_OUT [5] $end
$var wire 1 ; REG_OUT [4] $end
$var wire 1 < REG_OUT [3] $end
$var wire 1 = REG_OUT [2] $end
$var wire 1 > REG_OUT [1] $end
$var wire 1 ? REG_OUT [0] $end

$scope module i1 $end
$var wire 1 @ gnd $end
$var wire 1 A vcc $end
$var wire 1 B unknown $end
$var wire 1 C devoe $end
$var wire 1 D devclrn $end
$var wire 1 E devpor $end
$var wire 1 F ww_devoe $end
$var wire 1 G ww_devclrn $end
$var wire 1 H ww_devpor $end
$var wire 1 I ww_CLOCK_50 $end
$var wire 1 J ww_KEY [3] $end
$var wire 1 K ww_KEY [2] $end
$var wire 1 L ww_KEY [1] $end
$var wire 1 M ww_KEY [0] $end
$var wire 1 N ww_PC_OUT [7] $end
$var wire 1 O ww_PC_OUT [6] $end
$var wire 1 P ww_PC_OUT [5] $end
$var wire 1 Q ww_PC_OUT [4] $end
$var wire 1 R ww_PC_OUT [3] $end
$var wire 1 S ww_PC_OUT [2] $end
$var wire 1 T ww_PC_OUT [1] $end
$var wire 1 U ww_PC_OUT [0] $end
$var wire 1 V ww_LEDR [9] $end
$var wire 1 W ww_LEDR [8] $end
$var wire 1 X ww_LEDR [7] $end
$var wire 1 Y ww_LEDR [6] $end
$var wire 1 Z ww_LEDR [5] $end
$var wire 1 [ ww_LEDR [4] $end
$var wire 1 \ ww_LEDR [3] $end
$var wire 1 ] ww_LEDR [2] $end
$var wire 1 ^ ww_LEDR [1] $end
$var wire 1 _ ww_LEDR [0] $end
$var wire 1 ` ww_REG_OUT [7] $end
$var wire 1 a ww_REG_OUT [6] $end
$var wire 1 b ww_REG_OUT [5] $end
$var wire 1 c ww_REG_OUT [4] $end
$var wire 1 d ww_REG_OUT [3] $end
$var wire 1 e ww_REG_OUT [2] $end
$var wire 1 f ww_REG_OUT [1] $end
$var wire 1 g ww_REG_OUT [0] $end
$var wire 1 h \KEY[1]~input_o\ $end
$var wire 1 i \KEY[2]~input_o\ $end
$var wire 1 j \KEY[3]~input_o\ $end
$var wire 1 k \~QUARTUS_CREATED_GND~I_combout\ $end
$var wire 1 l \KEY[0]~input_o\ $end
$var wire 1 m \CLOCK_50~input_o\ $end
$var wire 1 n \gravar:detectorSub0|saidaQ~0_combout\ $end
$var wire 1 o \gravar:detectorSub0|saidaQ~q\ $end
$var wire 1 p \gravar:detectorSub0|saida~combout\ $end
$var wire 1 q \PC|DOUT[0]~0_combout\ $end
$var wire 1 r \PC|DOUT[0]~DUPLICATE_q\ $end
$var wire 1 s \incrementaPC|Add0~1_sumout\ $end
$var wire 1 t \incrementaPC|Add0~2\ $end
$var wire 1 u \incrementaPC|Add0~5_sumout\ $end
$var wire 1 v \incrementaPC|Add0~6\ $end
$var wire 1 w \incrementaPC|Add0~9_sumout\ $end
$var wire 1 x \incrementaPC|Add0~10\ $end
$var wire 1 y \incrementaPC|Add0~13_sumout\ $end
$var wire 1 z \PC|DOUT[4]~feeder_combout\ $end
$var wire 1 { \PC|DOUT[5]~DUPLICATE_q\ $end
$var wire 1 | \incrementaPC|Add0~14\ $end
$var wire 1 } \incrementaPC|Add0~17_sumout\ $end
$var wire 1 ~ \PC|DOUT[5]~feeder_combout\ $end
$var wire 1 !! \PC|DOUT[6]~DUPLICATE_q\ $end
$var wire 1 "! \incrementaPC|Add0~18\ $end
$var wire 1 #! \incrementaPC|Add0~21_sumout\ $end
$var wire 1 $! \PC|DOUT[7]~DUPLICATE_q\ $end
$var wire 1 %! \incrementaPC|Add0~22\ $end
$var wire 1 &! \incrementaPC|Add0~25_sumout\ $end
$var wire 1 '! \PC|DOUT[7]~feeder_combout\ $end
$var wire 1 (! \ROM1|memROM~2_combout\ $end
$var wire 1 )! \ROM1|memROM~1_combout\ $end
$var wire 1 *! \ROM1|memROM~0_combout\ $end
$var wire 1 +! \decoderInstru1|saida[3]~0_combout\ $end
$var wire 1 ,! \decoderInstru1|Equal1~0_combout\ $end
$var wire 1 -! \ROM1|memROM~3_combout\ $end
$var wire 1 .! \decoderInstru1|Equal1~1_combout\ $end
$var wire 1 /! \ROM1|memROM~5_combout\ $end
$var wire 1 0! \ROM1|memROM~6_combout\ $end
$var wire 1 1! \RAM1|ram~166_combout\ $end
$var wire 1 2! \RAM1|ram~25_q\ $end
$var wire 1 3! \ROM1|memROM~4_combout\ $end
$var wire 1 4! \RAM1|ram~165_combout\ $end
$var wire 1 5! \RAM1|ram~33_q\ $end
$var wire 1 6! \RAM1|ram~145_combout\ $end
$var wire 1 7! \RAM1|ram~146_combout\ $end
$var wire 1 8! \ULA1|Add0~34_cout\ $end
$var wire 1 9! \ULA1|Add0~1_sumout\ $end
$var wire 1 :! \ULA1|saida[0]~0_combout\ $end
$var wire 1 ;! \decoderInstru1|saida[4]~1_combout\ $end
$var wire 1 <! \RAM1|ram~34_q\ $end
$var wire 1 =! \RAM1|ram~148_combout\ $end
$var wire 1 >! \RAM1|ram~26_q\ $end
$var wire 1 ?! \RAM1|ram~147_combout\ $end
$var wire 1 @! \RAM1|ram~149_combout\ $end
$var wire 1 A! \ULA1|Add0~2\ $end
$var wire 1 B! \ULA1|Add0~5_sumout\ $end
$var wire 1 C! \ULA1|saida[1]~1_combout\ $end
$var wire 1 D! \REGA|DOUT[1]~DUPLICATE_q\ $end
$var wire 1 E! \RAM1|ram~27feeder_combout\ $end
$var wire 1 F! \RAM1|ram~27_q\ $end
$var wire 1 G! \RAM1|ram~35_q\ $end
$var wire 1 H! \RAM1|ram~150_combout\ $end
$var wire 1 I! \RAM1|ram~151_combout\ $end
$var wire 1 J! \ULA1|Add0~6\ $end
$var wire 1 K! \ULA1|Add0~9_sumout\ $end
$var wire 1 L! \ULA1|saida[2]~2_combout\ $end
$var wire 1 M! \REGA|DOUT[2]~DUPLICATE_q\ $end
$var wire 1 N! \RAM1|ram~36_q\ $end
$var wire 1 O! \RAM1|ram~153_combout\ $end
$var wire 1 P! \RAM1|ram~28_q\ $end
$var wire 1 Q! \RAM1|ram~152_combout\ $end
$var wire 1 R! \RAM1|ram~154_combout\ $end
$var wire 1 S! \ULA1|Add0~10\ $end
$var wire 1 T! \ULA1|Add0~13_sumout\ $end
$var wire 1 U! \ULA1|saida[3]~3_combout\ $end
$var wire 1 V! \RAM1|ram~37_q\ $end
$var wire 1 W! \RAM1|ram~29_q\ $end
$var wire 1 X! \RAM1|ram~155_combout\ $end
$var wire 1 Y! \RAM1|ram~156_combout\ $end
$var wire 1 Z! \ULA1|Add0~14\ $end
$var wire 1 [! \ULA1|Add0~17_sumout\ $end
$var wire 1 \! \ULA1|saida[4]~7_combout\ $end
$var wire 1 ]! \REGA|DOUT[4]~DUPLICATE_q\ $end
$var wire 1 ^! \RAM1|ram~38_q\ $end
$var wire 1 _! \RAM1|ram~158_combout\ $end
$var wire 1 `! \RAM1|ram~30_q\ $end
$var wire 1 a! \RAM1|ram~157_combout\ $end
$var wire 1 b! \RAM1|ram~159_combout\ $end
$var wire 1 c! \ULA1|Add0~18\ $end
$var wire 1 d! \ULA1|Add0~21_sumout\ $end
$var wire 1 e! \ULA1|saida[5]~6_combout\ $end
$var wire 1 f! \RAM1|ram~31_q\ $end
$var wire 1 g! \RAM1|ram~39_q\ $end
$var wire 1 h! \RAM1|ram~160_combout\ $end
$var wire 1 i! \RAM1|ram~161_combout\ $end
$var wire 1 j! \ULA1|Add0~22\ $end
$var wire 1 k! \ULA1|Add0~25_sumout\ $end
$var wire 1 l! \ULA1|saida[6]~5_combout\ $end
$var wire 1 m! \RAM1|ram~40_q\ $end
$var wire 1 n! \RAM1|ram~163_combout\ $end
$var wire 1 o! \RAM1|ram~32_q\ $end
$var wire 1 p! \RAM1|ram~162_combout\ $end
$var wire 1 q! \RAM1|ram~164_combout\ $end
$var wire 1 r! \ULA1|Add0~26\ $end
$var wire 1 s! \ULA1|Add0~29_sumout\ $end
$var wire 1 t! \ULA1|saida[7]~4_combout\ $end
$var wire 1 u! \REGA|DOUT[7]~DUPLICATE_q\ $end
$var wire 1 v! \PC|DOUT\ [8] $end
$var wire 1 w! \PC|DOUT\ [7] $end
$var wire 1 x! \PC|DOUT\ [6] $end
$var wire 1 y! \PC|DOUT\ [5] $end
$var wire 1 z! \PC|DOUT\ [4] $end
$var wire 1 {! \PC|DOUT\ [3] $end
$var wire 1 |! \PC|DOUT\ [2] $end
$var wire 1 }! \PC|DOUT\ [1] $end
$var wire 1 ~! \PC|DOUT\ [0] $end
$var wire 1 !" \REGA|DOUT\ [7] $end
$var wire 1 "" \REGA|DOUT\ [6] $end
$var wire 1 #" \REGA|DOUT\ [5] $end
$var wire 1 $" \REGA|DOUT\ [4] $end
$var wire 1 %" \REGA|DOUT\ [3] $end
$var wire 1 &" \REGA|DOUT\ [2] $end
$var wire 1 '" \REGA|DOUT\ [1] $end
$var wire 1 (" \REGA|DOUT\ [0] $end
$var wire 1 )" \RAM1|ALT_INV_ram~147_combout\ $end
$var wire 1 *" \RAM1|ALT_INV_ram~26_q\ $end
$var wire 1 +" \decoderInstru1|ALT_INV_saida[3]~0_combout\ $end
$var wire 1 ," \RAM1|ALT_INV_ram~146_combout\ $end
$var wire 1 -" \ROM1|ALT_INV_memROM~6_combout\ $end
$var wire 1 ." \ROM1|ALT_INV_memROM~5_combout\ $end
$var wire 1 /" \RAM1|ALT_INV_ram~145_combout\ $end
$var wire 1 0" \ROM1|ALT_INV_memROM~4_combout\ $end
$var wire 1 1" \RAM1|ALT_INV_ram~33_q\ $end
$var wire 1 2" \RAM1|ALT_INV_ram~25_q\ $end
$var wire 1 3" \ROM1|ALT_INV_memROM~3_combout\ $end
$var wire 1 4" \decoderInstru1|ALT_INV_Equal1~0_combout\ $end
$var wire 1 5" \ROM1|ALT_INV_memROM~2_combout\ $end
$var wire 1 6" \ROM1|ALT_INV_memROM~1_combout\ $end
$var wire 1 7" \ROM1|ALT_INV_memROM~0_combout\ $end
$var wire 1 8" \REGA|ALT_INV_DOUT\ [7] $end
$var wire 1 9" \REGA|ALT_INV_DOUT\ [6] $end
$var wire 1 :" \REGA|ALT_INV_DOUT\ [5] $end
$var wire 1 ;" \REGA|ALT_INV_DOUT\ [4] $end
$var wire 1 <" \REGA|ALT_INV_DOUT\ [3] $end
$var wire 1 =" \REGA|ALT_INV_DOUT\ [2] $end
$var wire 1 >" \REGA|ALT_INV_DOUT\ [1] $end
$var wire 1 ?" \REGA|ALT_INV_DOUT\ [0] $end
$var wire 1 @" \PC|ALT_INV_DOUT\ [4] $end
$var wire 1 A" \PC|ALT_INV_DOUT\ [3] $end
$var wire 1 B" \PC|ALT_INV_DOUT\ [2] $end
$var wire 1 C" \PC|ALT_INV_DOUT\ [1] $end
$var wire 1 D" \PC|ALT_INV_DOUT\ [0] $end
$var wire 1 E" \ULA1|ALT_INV_Add0~29_sumout\ $end
$var wire 1 F" \ULA1|ALT_INV_Add0~25_sumout\ $end
$var wire 1 G" \ULA1|ALT_INV_Add0~21_sumout\ $end
$var wire 1 H" \ULA1|ALT_INV_Add0~17_sumout\ $end
$var wire 1 I" \ULA1|ALT_INV_Add0~13_sumout\ $end
$var wire 1 J" \ULA1|ALT_INV_Add0~9_sumout\ $end
$var wire 1 K" \ULA1|ALT_INV_Add0~5_sumout\ $end
$var wire 1 L" \ULA1|ALT_INV_Add0~1_sumout\ $end
$var wire 1 M" \incrementaPC|ALT_INV_Add0~25_sumout\ $end
$var wire 1 N" \incrementaPC|ALT_INV_Add0~17_sumout\ $end
$var wire 1 O" \incrementaPC|ALT_INV_Add0~13_sumout\ $end
$var wire 1 P" \REGA|ALT_INV_DOUT[2]~DUPLICATE_q\ $end
$var wire 1 Q" \PC|ALT_INV_DOUT[7]~DUPLICATE_q\ $end
$var wire 1 R" \PC|ALT_INV_DOUT[6]~DUPLICATE_q\ $end
$var wire 1 S" \PC|ALT_INV_DOUT[5]~DUPLICATE_q\ $end
$var wire 1 T" \PC|ALT_INV_DOUT[0]~DUPLICATE_q\ $end
$var wire 1 U" \ALT_INV_KEY[0]~input_o\ $end
$var wire 1 V" \decoderInstru1|ALT_INV_Equal1~1_combout\ $end
$var wire 1 W" \gravar:detectorSub0|ALT_INV_saidaQ~q\ $end
$var wire 1 X" \RAM1|ALT_INV_ram~164_combout\ $end
$var wire 1 Y" \RAM1|ALT_INV_ram~163_combout\ $end
$var wire 1 Z" \RAM1|ALT_INV_ram~40_q\ $end
$var wire 1 [" \RAM1|ALT_INV_ram~162_combout\ $end
$var wire 1 \" \RAM1|ALT_INV_ram~32_q\ $end
$var wire 1 ]" \RAM1|ALT_INV_ram~161_combout\ $end
$var wire 1 ^" \RAM1|ALT_INV_ram~160_combout\ $end
$var wire 1 _" \RAM1|ALT_INV_ram~39_q\ $end
$var wire 1 `" \RAM1|ALT_INV_ram~31_q\ $end
$var wire 1 a" \RAM1|ALT_INV_ram~159_combout\ $end
$var wire 1 b" \RAM1|ALT_INV_ram~158_combout\ $end
$var wire 1 c" \RAM1|ALT_INV_ram~38_q\ $end
$var wire 1 d" \RAM1|ALT_INV_ram~157_combout\ $end
$var wire 1 e" \RAM1|ALT_INV_ram~30_q\ $end
$var wire 1 f" \RAM1|ALT_INV_ram~156_combout\ $end
$var wire 1 g" \RAM1|ALT_INV_ram~155_combout\ $end
$var wire 1 h" \RAM1|ALT_INV_ram~37_q\ $end
$var wire 1 i" \RAM1|ALT_INV_ram~29_q\ $end
$var wire 1 j" \RAM1|ALT_INV_ram~154_combout\ $end
$var wire 1 k" \RAM1|ALT_INV_ram~153_combout\ $end
$var wire 1 l" \RAM1|ALT_INV_ram~36_q\ $end
$var wire 1 m" \RAM1|ALT_INV_ram~152_combout\ $end
$var wire 1 n" \RAM1|ALT_INV_ram~28_q\ $end
$var wire 1 o" \RAM1|ALT_INV_ram~151_combout\ $end
$var wire 1 p" \RAM1|ALT_INV_ram~150_combout\ $end
$var wire 1 q" \RAM1|ALT_INV_ram~35_q\ $end
$var wire 1 r" \RAM1|ALT_INV_ram~27_q\ $end
$var wire 1 s" \RAM1|ALT_INV_ram~149_combout\ $end
$var wire 1 t" \RAM1|ALT_INV_ram~148_combout\ $end
$var wire 1 u" \RAM1|ALT_INV_ram~34_q\ $end
$upscope $end
$upscope $end
$enddefinitions $end
#0
$dumpvars
x!
0@
1A
xB
1C
1D
1E
1F
1G
1H
xI
xh
xi
xj
xk
1l
xm
0n
0o
0p
1q
0r
0s
0t
0u
0v
0w
0x
0y
0z
0{
0|
0}
0~
0!!
0"!
0#!
0$!
0%!
0&!
0'!
0(!
0)!
1*!
1+!
1,!
0-!
0.!
1/!
00!
01!
02!
03!
04!
05!
06!
07!
18!
09!
0:!
1;!
0<!
0=!
0>!
0?!
0@!
1A!
0B!
0C!
0D!
0E!
0F!
0G!
0H!
0I!
1J!
1K!
1L!
0M!
0N!
0O!
0P!
0Q!
0R!
0S!
1T!
0U!
0V!
0W!
0X!
0Y!
0Z!
1[!
0\!
0]!
0^!
0_!
0`!
0a!
0b!
0c!
1d!
0e!
0f!
0g!
0h!
0i!
0j!
1k!
0l!
0m!
0n!
0o!
0p!
0q!
0r!
1s!
0t!
0u!
1)"
1*"
0+"
1,"
1-"
0."
1/"
10"
11"
12"
13"
04"
15"
16"
07"
0E"
0F"
0G"
0H"
0I"
0J"
1K"
1L"
1M"
1N"
1O"
1P"
1Q"
1R"
1S"
1T"
0U"
1V"
1W"
1X"
1Y"
1Z"
1["
1\"
1]"
1^"
1_"
1`"
1a"
1b"
1c"
1d"
1e"
1f"
1g"
1h"
1i"
1j"
1k"
1l"
1m"
1n"
1o"
1p"
1q"
1r"
1s"
1t"
1u"
x"
x#
x$
1%
xJ
xK
xL
1M
0N
0O
0P
0Q
0R
0S
0T
0U
0V
0W
0X
0Y
0Z
0[
0\
0]
0^
0_
0`
0a
0b
0c
0d
0e
0f
0g
xv!
0w!
0x!
0y!
0z!
0{!
0|!
0}!
0~!
0!"
0""
0#"
0$"
0%"
0&"
0'"
0("
18"
19"
1:"
1;"
1<"
1="
1>"
1?"
1@"
1A"
1B"
1C"
1D"
0&
0'
0(
0)
0*
0+
0,
0-
0.
0/
00
01
02
03
04
05
06
07
08
09
0:
0;
0<
0=
0>
0?
$end
#20000
0%
0M
0l
1U"
1n
1p
1r
1~!
1&"
1M!
0P"
0="
0D"
0T"
0q
1)!
0/!
13!
14!
1\!
1e!
1l!
1t!
1s
0K!
1S!
1E!
1J"
00"
1."
06"
1]
1e
1U
0T!
1Z!
0+!
0,!
1K!
1B!
0J!
1C!
0L!
1I"
1-
1=
17
0[!
1c!
0K"
0J"
14"
1+"
0K!
1H"
0B!
1J!
1L!
0d!
1j!
1J"
0\!
1G"
1K"
0L!
0k!
1r!
1K!
0C!
0e!
0J"
1F"
0s!
0l!
1L!
1E"
0t!
#40000
1%
1M
1l
0U"
0n
0p
#60000
0%
0M
0l
1U"
1n
1p
0r
0~!
1}!
1G!
0q"
0C"
1D"
1T"
1q
0)!
1-!
10!
04!
1H!
0p"
0-"
03"
16"
1T
0U
1+!
1,!
0H!
07
16
1p"
04"
0+"
19!
0A!
1:!
1B!
0J!
1C!
0L!
1T!
0Z!
1U!
0I"
0K"
0L"
1[!
0c!
0K!
0B!
1K"
1J"
0H"
1d!
0j!
0G"
1k!
0r!
0F"
1s!
0E"
#80000
1%
1M
1l
0U"
0n
0p
#100000
0%
0M
0l
1U"
1n
1p
1r
1~!
1("
1'"
1D!
0&"
0M!
1%"
0<"
1P"
1="
0>"
0?"
0D"
0T"
0q
1)!
00!
03!
1\!
1e!
1l!
1t!
0s
1t
11!
09!
1A!
1B!
1K!
0S!
0E!
0T!
1Z!
1I"
0J"
0K"
1L"
10"
1-"
06"
1\
1d
0]
0e
1^
1f
1_
1g
1U
0[!
1c!
1T!
0Z!
0B!
1J!
1u
0+!
0,!
0T!
1Z!
1B!
0C!
0U!
1K"
0I"
1H"
1/
1.
0-
1,
1?
1>
0=
1<
17
0K!
1S!
1[!
0c!
0d!
1j!
0K"
1I"
14"
1+"
0\!
0[!
1c!
1G"
0H"
1J"
19!
0:!
1L!
1C!
0k!
1r!
1d!
0j!
1T!
1H"
0L!
1\!
0e!
0d!
1j!
0I"
0G"
1F"
0L"
0\!
1k!
0r!
0s!
1G"
1:!
0l!
1e!
1U!
0k!
1r!
1E"
0F"
0e!
1s!
1F"
1l!
0t!
0s!
0E"
0l!
1E"
1t!
0t!
#120000
1%
1M
1l
0U"
0n
0p
#140000
0%
0M
0l
1U"
1n
1p
0r
0~!
0}!
1|!
12!
1>!
1P!
0n"
0*"
02"
0B"
1C"
1D"
1T"
1q
0t
0u
1v
1(!
0)!
0*!
01!
16!
1?!
1Q!
0m"
0)"
0/"
17"
16"
05"
1S
0T
0U
1w
1u
0v
1.!
17!
1@!
1R!
07
06
15
0w
0j"
0s"
0,"
0V"
08!
1K!
0S!
1[!
0c!
1d!
0j!
1k!
0r!
1s!
0E"
0F"
0G"
0H"
0J"
0s!
0k!
0d!
0T!
09!
1L!
1\!
1e!
1l!
1t!
1L"
1I"
1G"
1F"
1E"
0t!
0l!
0e!
0U!
0:!
#160000
1%
1M
1l
0U"
0n
0p
#180000
0%
0M
0l
1U"
1n
1p
1r
1~!
0("
1&"
1M!
0%"
1$"
1]!
0;"
1<"
0P"
0="
1?"
0D"
0T"
0q
1s
19!
0A!
0K!
1S!
1E!
1T!
0Z!
0[!
1c!
1H"
0I"
1J"
0L"
1[
1c
0\
0d
1]
1e
0_
0g
1U
1d!
1[!
0c!
0T!
1Z!
0B!
1:!
0L!
1U!
0\!
1K"
1I"
0H"
0G"
0/
1-
0,
1+
0?
1=
0<
1;
17
0[!
1c!
0d!
1e!
1\!
0U!
0C!
1G"
1H"
1d!
0\!
0e!
0G"
1e!
#200000
1%
1M
1l
0U"
0n
0p
#220000
0%
0M
0l
1U"
1n
1p
0r
0~!
1}!
1("
0'"
0D!
0&"
0M!
0$"
0]!
1#"
0:"
1;"
1P"
1="
1>"
0?"
0C"
1D"
1T"
1q
1)!
0-!
13!
09!
1A!
1B!
0J!
1K!
0S!
0E!
1[!
0c!
0d!
1j!
1G"
0H"
0J"
0K"
1L"
00"
13"
06"
1Z
1b
0[
0c
0]
0e
0^
0f
1_
1g
1T
0U
1k!
1d!
0j!
1T!
0Z!
0K!
0B!
1J!
0.!
06!
0@!
1H!
0R!
0:!
1C!
1L!
1\!
0e!
1K"
1J"
0I"
0G"
0F"
1/
0.
0-
0+
1*
1?
0>
0=
0;
1:
07
16
1K!
0[!
0k!
1j"
0p"
1s"
1/"
1V"
1l!
1e!
1U!
0L!
0C!
1F"
1H"
0J"
18!
19!
0A!
0K!
1S!
1[!
0d!
1j!
1k!
1s!
07!
1I!
1L!
0\!
0l!
0o"
1,"
0E"
0F"
1G"
0H"
1J"
0L"
0k!
1r!
0T!
1Z!
1B!
0J!
09!
1A!
1\!
0e!
1l!
1t!
19!
1:!
1K!
0S!
0L!
1L"
0K"
1I"
1F"
0B!
1J!
0K!
0[!
1c!
0s!
0J"
0L"
0l!
0U!
1C!
0:!
1T!
0Z!
1E"
1H"
1J"
1K"
1:!
1L!
1d!
1K!
0I"
0C!
0L!
0\!
0t!
1[!
0c!
0J"
0G"
1U!
0H"
1e!
1L!
0d!
1\!
1G"
0e!
#240000
1%
1M
1l
0U"
0n
0p
#260000
0%
0M
0l
1U"
1n
1p
1r
1~!
1&"
1M!
1%"
1$"
1]!
0#"
1:"
0;"
0<"
0P"
0="
0D"
0T"
0q
0(!
0)!
03!
0s
1t
0K!
1S!
1E!
0T!
1Z!
0[!
1c!
1d!
0j!
0G"
1H"
1I"
1J"
10"
16"
15"
0Z
0b
1[
1c
1\
1d
1]
1e
1U
1k!
0r!
0d!
1j!
1[!
1T!
0u
1v
0;!
0H!
0L!
0U!
0\!
1e!
0I"
0H"
1G"
0F"
1-
1,
1+
0*
1=
1<
1;
0:
17
1w
0k!
1r!
1s!
1p"
1l!
0e!
1\!
1U!
0E"
1F"
0I!
0s!
0l!
1t!
1E"
1o"
1K!
0t!
0J"
1L!
#280000
1%
1M
1l
0U"
0n
0p
#300000
0%
0M
0l
1U"
1n
1p
0r
0~!
0}!
0|!
1{!
0A"
1B"
1C"
1D"
1T"
1q
0t
1u
0v
0w
1x
1R
0S
0T
0U
1y
1w
0x
0u
0O"
07
06
05
14
0y
1z
1O"
0z
#320000
1%
1M
1l
0U"
0n
0p
#340000
0%
0M
0l
1U"
1n
1p
1r
1~!
0D"
0T"
0q
1s
1U
17
#360000
1%
1M
1l
0U"
0n
0p
#380000
0%
0M
0l
1U"
1n
1p
0r
0~!
1}!
0C"
1D"
1T"
1q
1T
0U
07
16
#400000
1%
1M
1l
0U"
0n
0p
