Aulas_antes_P1/RefazerAula2Completa/simulation/qsim/meuNome.msim.vcd
$comment
	File created using the following command:
		vcd file meuNome.msim.vcd -direction
$end
$date
	Thu Aug 25 08:13:05 2022
$end
$version
	ModelSim Version 2020.1
$end
$timescale
	1ps
$end

$scope module meunome_vhd_vec_tst $end
$var wire 1 ! Dado [7] $end
$var wire 1 " Dado [6] $end
$var wire 1 # Dado [5] $end
$var wire 1 $ Dado [4] $end
$var wire 1 % Dado [3] $end
$var wire 1 & Dado [2] $end
$var wire 1 ' Dado [1] $end
$var wire 1 ( Dado [0] $end
$var wire 1 ) Endereco [2] $end
$var wire 1 * Endereco [1] $end
$var wire 1 + Endereco [0] $end

$scope module i1 $end
$var wire 1 , gnd $end
$var wire 1 - vcc $end
$var wire 1 . unknown $end
$var wire 1 / devoe $end
$var wire 1 0 devclrn $end
$var wire 1 1 devpor $end
$var wire 1 2 ww_devoe $end
$var wire 1 3 ww_devclrn $end
$var wire 1 4 ww_devpor $end
$var wire 1 5 ww_Endereco [2] $end
$var wire 1 6 ww_Endereco [1] $end
$var wire 1 7 ww_Endereco [0] $end
$var wire 1 8 ww_Dado [7] $end
$var wire 1 9 ww_Dado [6] $end
$var wire 1 : ww_Dado [5] $end
$var wire 1 ; ww_Dado [4] $end
$var wire 1 < ww_Dado [3] $end
$var wire 1 = ww_Dado [2] $end
$var wire 1 > ww_Dado [1] $end
$var wire 1 ? ww_Dado [0] $end
$var wire 1 @ \~QUARTUS_CREATED_GND~I_combout\ $end
$var wire 1 A \Endereco[0]~input_o\ $end
$var wire 1 B \Endereco[1]~input_o\ $end
$var wire 1 C \Endereco[2]~input_o\ $end
$var wire 1 D \memROM~0_combout\ $end
$var wire 1 E \memROM~1_combout\ $end
$var wire 1 F \memROM~2_combout\ $end
$var wire 1 G \memROM~3_combout\ $end
$var wire 1 H \memROM~4_combout\ $end
$var wire 1 I \memROM~5_combout\ $end
$var wire 1 J \ALT_INV_memROM~5_combout\ $end
$var wire 1 K \ALT_INV_Endereco[0]~input_o\ $end
$var wire 1 L \ALT_INV_Endereco[1]~input_o\ $end
$var wire 1 M \ALT_INV_Endereco[2]~input_o\ $end
$upscope $end
$upscope $end
$enddefinitions $end
#0
$dumpvars
0,
1-
x.
1/
10
11
12
13
14
x@
0A
0B
0C
0D
0E
1F
1G
0H
0I
1J
1K
1L
1M
0)
0*
0+
05
06
07
08
19
0:
0;
1<
1=
0>
0?
0!
1"
0#
0$
1%
1&
0'
0(
$end
#60000
1+
17
1A
0K
1D
0F
1H
1:
0=
1?
1(
0&
1#
#120000
0+
1*
07
16
1B
0A
1K
0L
0D
1E
1F
0G
0<
1=
1>
1;
0?
0(
1'
1&
0%
1$
#180000
1+
17
1A
0K
1D
0E
0F
1G
1<
0=
0>
0;
1?
1(
0'
0&
1%
0$
#240000
0+
0*
1)
07
06
15
1C
0B
0A
1K
1L
0M
0G
0<
0%
#300000
1+
17
1A
0K
1E
1F
1G
0H
0:
1<
1=
1>
1;
1'
1&
1%
1$
0#
#360000
0+
1*
07
16
1B
0A
1K
0L
1I
0D
0F
1H
0J
1:
0=
0?
09
0(
0&
1#
0"
#420000
1+
17
1A
0K
1D
0E
0>
0;
1?
1(
0'
0$
#480000
0+
0*
0)
07
06
05
0C
0B
0A
1K
1L
1M
0I
0D
1F
0H
1J
0:
1=
0?
19
0(
1&
0#
1"
#540000
1+
17
1A
0K
1D
0F
1H
1:
0=
1?
1(
0&
1#
#600000
0+
1*
07
16
1B
0A
1K
0L
0D
1E
1F
0G
0<
1=
1>
1;
0?
0(
1'
1&
0%
1$
#660000
1+
17
1A
0K
1D
0E
0F
1G
1<
0=
0>
0;
1?
1(
0'
0&
1%
0$
#720000
0+
0*
1)
07
06
15
1C
0B
0A
1K
1L
0M
0G
0<
0%
#780000
1+
17
1A
0K
1E
1F
1G
0H
0:
1<
1=
1>
1;
1'
1&
1%
1$
0#
#840000
0+
1*
07
16
1B
0A
1K
0L
1I
0D
0F
1H
0J
1:
0=
0?
09
0(
0&
1#
0"
#900000
1+
17
1A
0K
1D
0E
0>
0;
1?
1(
0'
0$
#960000
0+
0*
0)
07
06
05
0C
0B
0A
1K
1L
1M
0I
0D
1F
0H
1J
0:
1=
0?
19
0(
1&
0#
1"
